{
	"id": 3,
	"name": "Yaneth Alvarado",
	"email": "yalvaradocamposs@gmail.com",
	"phone": "123412345",
	"city": "Chennai",
	"state": "Tamil Nadu",
	"country": "India",
	"organization": "Company 3",
	"jobProfile": "Software Developer",
	"additionalInfo": "Buys Lots of Products in general"
}
